(---------------------------------------------------------------------)
(                                                                     )
(    Allegro Netrev Import Logic                                      )
(                                                                     )
(    Drawing          : pcb_rp2040_2.brd                              )
(    Software Version : 17.4S008                                      )
(    Date/Time        : Wed Nov 17 12:20:13 2021                      )
(                                                                     )
(---------------------------------------------------------------------)


------ Directives ------------

Ripup etch:                  No
Ripup delete first segment:  No
Ripup retain bondwire:       No
Ripup symbols:               Always
Missing symbol has error:    No
DRC update:                  Yes
Schematic directory:         'c:\users\bogda\documents\orcad project\pcb_rp2040\allegro'
Design Directory:            'c:/users/bogda/documents/orcad project/pcb_rp2040/allegro'
Old design name:             'c:/users/bogda/documents/orcad project/pcb_rp2040/allegro/pcb_rp2040_2.brd'
New design name:             'c:/users/bogda/documents/orcad project/pcb_rp2040/allegro/pcb_rp2040_2.brd'

CmdLine: netrev -i c:\users\bogda\documents\orcad project\pcb_rp2040\allegro -y 1 -q netrev_constraint_report.xml c:/users/bogda/documents/orcad project/pcb_rp2040/allegro/#Taaaaag17412.tmp

------ Preparing to read pst files ------

Starting to read c:/users/bogda/documents/orcad project/pcb_rp2040/allegro/pstchip.dat 
   Finished reading c:/users/bogda/documents/orcad project/pcb_rp2040/allegro/pstchip.dat (00:00:00.04)
Starting to read c:/users/bogda/documents/orcad project/pcb_rp2040/allegro/pstxprt.dat 
   Finished reading c:/users/bogda/documents/orcad project/pcb_rp2040/allegro/pstxprt.dat (00:00:00.00)
Starting to read c:/users/bogda/documents/orcad project/pcb_rp2040/allegro/pstxnet.dat 
   Finished reading c:/users/bogda/documents/orcad project/pcb_rp2040/allegro/pstxnet.dat (00:00:00.00)

------ Oversights/Warnings/Errors ------


------ Library Paths ------
MODULEPATH =  . 
           C:/Get_Started_Workshop/Company/pcb/modules 

PSMPATH =  . 
           symbols 
           C:/Get_Started_Workshop/Company/pcb/symbols 
           C:/Get_Started_Workshop/Company/pcb/symbols/connector 
           C:/Get_Started_Workshop/Company/pcb/symbols/ic 
           C:/Get_Started_Workshop/Company/pcb/symbols/other_symbols 
           C:/Get_Started_Workshop/Company/pcb/symbols/padsyms 
           C:/Get_Started_Workshop/Company/pcb/symbols/smd_misc 
           C:/Get_Started_Workshop/Company/pcb/symbols/tht_misc 
           C:/Cadence/SPB_17.4/share/pcb/pcb_lib/symbols 
           C:/Get_Started_Workshop/Company/pcb/symbols/student 
           C:/Users/bogda/cdssetup/OrCAD_Capture/17.4.0/downloaded_parts/allegropcb 
           C:/Cadence/Company/pcb/symbols/RP2040 

PADPATH =  . 
           symbols 
           padstacks 
           C:\Get_Started_Workshop\Company\pcb\padstacks 
           C:/Cadence/SPB_17.4\share\pcb\pcb_lib\symbols 
           C:\Get_Started_Workshop\Company\pcb\padstacks\student 
           C:/Users/bogda/cdssetup/OrCAD_Capture/17.4.0/downloaded_parts/allegropcb 


------ Summary Statistics ------


netrev run on Nov 17 12:20:13 2021
   DESIGN NAME : 'PCB_RP2040'
   PACKAGING ON Jun 25 2020 15:42:49

   COMPILE 'logic'
   CHECK_PIN_NAMES OFF
   CROSS_REFERENCE OFF
   FEEDBACK OFF
   INCREMENTAL OFF
   INTERFACE_TYPE PHYSICAL
   MAX_ERRORS 500
   MERGE_MINIMUM 5
   NET_NAME_CHARS '#%&()*+-./:=>?@[]^_`|'
   NET_NAME_LENGTH 24
   OVERSIGHTS ON
   REPLACE_CHECK OFF
   SINGLE_NODE_NETS ON
   SPLIT_MINIMUM 0
   SUPPRESS   20
   WARNINGS ON

 No error detected
 No oversight detected
 No warning detected

cpu time      0:00:32
elapsed time  0:00:01

